Quartus/FSM_Logic/simulation/qsim/FSM_based_traffic_controller.msim.vcd
$comment
	File created using the following command:
		vcd file FSM_based_traffic_controller.msim.vcd -direction
$end
$date
	Sun May 18 22:41:17 2025
$end
$version
	ModelSim Version 2020.1
$end
$timescale
	1ps
$end

$scope module FSM_based_traffic_controller_vlg_vec_tst $end
$var reg 1 ! c $end
$var reg 1 " clock $end
$var reg 1 # reset $end
$var wire 1 $ EW_G $end
$var wire 1 % EW_R $end
$var wire 1 & NS_G $end
$var wire 1 ' NS_R $end

$scope module i1 $end
$var wire 1 ( gnd $end
$var wire 1 ) vcc $end
$var wire 1 * unknown $end
$var tri1 1 + devclrn $end
$var tri1 1 , devpor $end
$var tri1 1 - devoe $end
$var wire 1 . NS_G~output_o $end
$var wire 1 / NS_R~output_o $end
$var wire 1 0 EW_G~output_o $end
$var wire 1 1 EW_R~output_o $end
$var wire 1 2 reset~input_o $end
$var wire 1 3 clock~input_o $end
$var wire 1 4 c~input_o $end
$var wire 1 5 reg_fstate.EW~0_combout $end
$var wire 1 6 fstate.EW~q $end
$var wire 1 7 NS_G~0_combout $end
$var wire 1 8 NS_R~0_combout $end
$upscope $end
$upscope $end
$enddefinitions $end
#0
$dumpvars
0!
0"
0#
1$
0%
0&
1'
0(
1)
x*
1+
1,
1-
0.
1/
10
01
02
03
04
05
06
07
08
$end
#20000
1"
13
#40000
0"
03
#60000
1"
13
#80000
0"
03
#90000
1!
14
15
#100000
1"
13
16
18
17
1.
11
00
0/
0'
0$
1%
1&
#120000
0!
0"
04
03
05
#140000
1"
13
06
08
07
0.
01
10
1/
1'
1$
0%
0&
#160000
0"
03
#180000
1"
13
#200000
0"
03
#220000
1"
13
#240000
0"
03
#250000
1!
14
15
#260000
1"
13
16
18
17
1.
11
00
0/
0'
0$
1%
1&
#280000
0"
03
#300000
1"
13
#310000
0!
04
05
#320000
0"
03
#340000
1"
13
06
08
07
0.
01
10
1/
1'
1$
0%
0&
#360000
0"
03
#380000
1!
1"
14
13
15
#400000
0"
03
#420000
1"
13
16
18
17
1.
11
00
0/
0'
0$
1%
1&
#440000
0!
0"
04
03
05
#460000
1"
13
06
08
07
0.
01
10
1/
1'
1$
0%
0&
#480000
0"
03
#500000
1"
13
#520000
0"
03
#540000
1"
13
#560000
0"
03
#580000
1"
13
#600000
0"
03
#620000
1"
13
#640000
0"
03
#660000
1"
13
#680000
1#
0"
12
03
18
00
0/
0'
0$
#700000
1"
13
#720000
0"
03
#740000
0#
1"
02
13
08
10
1/
1'
1$
#760000
0"
03
#780000
1"
13
#800000
0"
03
#820000
1"
13
#840000
0"
03
#860000
1"
13
#880000
0"
03
#900000
1"
13
#920000
0"
03
#940000
1"
13
#960000
0"
03
#980000
1"
13
